%YAML 1.1
%TAG !u! tag:unity3d.com,2011:
--- !u!129 &1
PlayerSettings:
  m_ObjectHideFlags: 0
  serializedVersion: 3
  AndroidProfiler: 0
  defaultScreenOrientation: 4
  targetDevice: 2
  targetGlesGraphics: 1
  targetIOSGraphics: -1
  targetResolution: 0
  accelerometerFrequency: 0
  companyName: Miniclip SA
  productName: On The Run
  defaultCursor: {fileID: 0}
  cursorHotspot: {x: 0, y: 0}
  defaultScreenWidth: 960
  defaultScreenHeight: 640
  defaultScreenWidthWeb: 960
  defaultScreenHeightWeb: 640
  m_RenderingPath: 1
  m_MobileRenderingPath: 1
  m_ActiveColorSpace: 0
  m_MTRendering: 1
  m_MobileMTRendering: 0
  m_UseDX11: 0
  m_Stereoscopic3D: 0
  iosShowActivityIndicatorOnLoading: -1
  androidShowActivityIndicatorOnLoading: -1
  displayResolutionDialog: 1
  allowedAutorotateToPortrait: 0
  allowedAutorotateToPortraitUpsideDown: 0
  allowedAutorotateToLandscapeRight: 1
  allowedAutorotateToLandscapeLeft: 1
  useOSAutorotation: 1
  use32BitDisplayBuffer: 1
  use24BitDepthBuffer: 1
  defaultIsFullScreen: 0
  defaultIsNativeResolution: 1
  runInBackground: 0
  captureSingleScreen: 0
  Override IPod Music: 0
  Prepare IOS For Recording: 0
  enableHWStatistics: 0
  usePlayerLog: 1
  stripPhysics: 0
  forceSingleInstance: 0
  resizableWindow: 0
  useMacAppStoreValidation: 0
  gpuSkinning: 0
  xboxPIXTextureCapture: 0
  xboxEnableAvatar: 0
  xboxEnableKinect: 0
  xboxEnableKinectAutoTracking: 0
  xboxEnableFitness: 0
  visibleInBackground: 0
  macFullscreenMode: 2
  d3d9FullscreenMode: 1
  d3d11ForceExclusiveMode: 0
  xboxSpeechDB: 0
  xboxEnableHeadOrientation: 0
  xboxEnableGuest: 0
  videoMemoryForVertexBuffers: 0
  m_SupportedAspectRatios:
    4:3: 1
    5:4: 1
    16:10: 1
    16:9: 1
    Others: 1
  iPhoneBundleIdentifier: com.miniclip.ontherun
  metroEnableIndependentInputSource: 0
  metroEnableLowLatencyPresentationAPI: 0
  productGUID: c2951db2515ff894e9d6b1d2007024f7
  iPhoneBundleVersion: 1.0.5
  iPhoneShortBundleVersion: 1.0.5
  AndroidBundleVersionCode: 1
  AndroidMinSdkVersion: 9
  AndroidPreferredInstallLocation: 1
  aotOptions: 
  apiCompatibilityLevel: 2
  iPhoneStrippingLevel: 2
  iPhoneScriptCallOptimization: 1
  ForceInternetPermission: 0
  ForceSDCardPermission: 0
  CreateWallpaper: 0
  APKExpansionFiles: 0
  StripUnusedMeshComponents: 1
  iPhoneSdkVersion: 988
  iPhoneTargetOSVersion: 20
  uIPrerenderedIcon: 1
  uIRequiresPersistentWiFi: 0
  uIStatusBarHidden: 1
  uIExitOnSuspend: 0
  uIStatusBarStyle: 0
  iPhoneSplashScreen: {fileID: 2800000, guid: 7d42b8e32528a4ba98882df2a6b56251, type: 3}
  iPhoneHighResSplashScreen: {fileID: 2800000, guid: 690a4ab0823464bef9f4927a9ec5fabb,
    type: 3}
  iPhoneTallHighResSplashScreen: {fileID: 2800000, guid: 24bdde142ea8c4b7c8cdfb018250f95a,
    type: 3}
  iPhone47inSplashScreen: {fileID: 2800000, guid: ceac188457e4a4258b0f38585471c680,
    type: 3}
  iPhone55inPortraitSplashScreen: {fileID: 2800000, guid: 9cd849438ce1c4bc786a7ac558ca5e2d,
    type: 3}
  iPhone55inLandscapeSplashScreen: {fileID: 2800000, guid: 4f46f2f9cf6f943dfb17cc2593cb8aab,
    type: 3}
  iPadPortraitSplashScreen: {fileID: 2800000, guid: 95ffef2d69d6248aeb4484b5063d015a,
    type: 3}
  iPadHighResPortraitSplashScreen: {fileID: 2800000, guid: 595be236fe01641c4beeb6380582d2c2,
    type: 3}
  iPadLandscapeSplashScreen: {fileID: 2800000, guid: 84c209a0b586441adb73c9aa4382ef4e,
    type: 3}
  iPadHighResLandscapeSplashScreen: {fileID: 2800000, guid: a7f8b16f4b0be4adba9c13538705cb9c,
    type: 3}
  iOSLaunchScreenType: 0
  iOSLaunchScreenPortrait: {fileID: 0}
  iOSLaunchScreenLandscape: {fileID: 0}
  iOSLaunchScreenBackgroundColor:
    serializedVersion: 2
    rgba: 0
  iOSLaunchScreenFillPct: 100
  iOSLaunchScreenSize: 100
  iOSLaunchScreenCustomXibPath: 
  AndroidTargetDevice: 0
  AndroidSplashScreenScale: 0
  AndroidKeystoreName: 
  AndroidKeyaliasName: 
  resolutionDialogBanner: {fileID: 0}
  m_BuildTargetIcons:
  - m_BuildTarget: 
    m_Icons:
    - m_Icon: {fileID: 0}
      m_Size: 128
  - m_BuildTarget: iPhone
    m_Icons:
    - m_Icon: {fileID: 2800000, guid: 286c6b0495c8f5d438acb4b8f1f284f9, type: 3}
      m_Size: 180
    - m_Icon: {fileID: 2800000, guid: 8959b59ec39f1ed46acc61b206710cae, type: 3}
      m_Size: 152
    - m_Icon: {fileID: 2800000, guid: 3e0028fb48862e24583ce61790c58eaa, type: 3}
      m_Size: 144
    - m_Icon: {fileID: 2800000, guid: a7b264c2e0798094ab483612662a6e01, type: 3}
      m_Size: 120
    - m_Icon: {fileID: 2800000, guid: d94bb71b89e27f345a972206b2bc8c32, type: 3}
      m_Size: 114
    - m_Icon: {fileID: 2800000, guid: bd096f2c5418ed242a14cae61406572e, type: 3}
      m_Size: 76
    - m_Icon: {fileID: 2800000, guid: 38e5739823d08d9419a64948d9d23a66, type: 3}
      m_Size: 72
    - m_Icon: {fileID: 2800000, guid: e6748909715838b45b16be0dbfbe1027, type: 3}
      m_Size: 57
  m_BuildTargetBatching:
  - m_BuildTarget: iPhone
    m_StaticBatching: 1
    m_DynamicBatching: 1
  - m_BuildTarget: Standalone
    m_StaticBatching: 1
    m_DynamicBatching: 1
  webPlayerTemplate: APPLICATION:No Context Menu
  m_TemplateCustomTags: {}
  locationUsageDescription: 
  XboxTitleId: 
  XboxImageXexPath: 
  XboxSpaPath: 
  XboxGenerateSpa: 0
  XboxDeployKinectResources: 0
  XboxSplashScreen: {fileID: 0}
  xboxEnableSpeech: 0
  xboxAdditionalTitleMemorySize: 0
  xboxDeployKinectHeadOrientation: 0
  xboxDeployKinectHeadPosition: 0
  ps3TitleConfigPath: 
  ps3DLCConfigPath: 
  ps3ThumbnailPath: 
  ps3BackgroundPath: 
  ps3SoundPath: 
  ps3TrophyCommId: 
  ps3NpCommunicationPassphrase: 
  ps3TrophyPackagePath: 
  ps3BootCheckMaxSaveGameSizeKB: 128
  ps3TrophyCommSig: 
  ps3SaveGameSlots: 1
  ps3TrialMode: 0
  psp2Splashimage: {fileID: 0}
  psp2LiveAreaGate: {fileID: 0}
  psp2LiveAreaBackround: {fileID: 0}
  psp2NPTrophyPackPath: 
  psp2NPCommsID: 
  psp2NPCommsPassphrase: 
  psp2NPCommsSig: 
  psp2ParamSfxPath: 
  psp2PackagePassword: 
  psp2DLCConfigPath: 
  psp2ThumbnailPath: 
  psp2BackgroundPath: 
  psp2SoundPath: 
  psp2TrophyCommId: 
  psp2TrophyPackagePath: 
  psp2PackagedResourcesPath: 
  flashStrippingLevel: 2
  spritePackerPolicy: OnTheRunPackerPolicy
  scriptingDefineSymbols:
    4: SBS_DEBUG
  metroPackageName: on_the_run_ios
  metroPackageLogo: 
  metroPackageLogo140: 
  metroPackageLogo180: 
  metroPackageLogo240: 
  metroPackageVersion: 
  metroCertificatePath: 
  metroCertificatePassword: 
  metroCertificateSubject: 
  metroCertificateIssuer: 
  metroCertificateNotAfter: 0000000000000000
  metroApplicationDescription: on_the_run_ios
  metroStoreTileLogo80: 
  metroStoreTileLogo: 
  metroStoreTileLogo140: 
  metroStoreTileLogo180: 
  metroStoreTileWideLogo80: 
  metroStoreTileWideLogo: 
  metroStoreTileWideLogo140: 
  metroStoreTileWideLogo180: 
  metroStoreTileSmallLogo80: 
  metroStoreTileSmallLogo: 
  metroStoreTileSmallLogo140: 
  metroStoreTileSmallLogo180: 
  metroStoreSmallTile80: 
  metroStoreSmallTile: 
  metroStoreSmallTile140: 
  metroStoreSmallTile180: 
  metroStoreLargeTile80: 
  metroStoreLargeTile: 
  metroStoreLargeTile140: 
  metroStoreLargeTile180: 
  metroStoreSplashScreenImage: 
  metroStoreSplashScreenImage140: 
  metroStoreSplashScreenImage180: 
  metroPhoneAppIcon: 
  metroPhoneAppIcon140: 
  metroPhoneAppIcon240: 
  metroPhoneSmallTile: 
  metroPhoneSmallTile140: 
  metroPhoneSmallTile240: 
  metroPhoneMediumTile: 
  metroPhoneMediumTile140: 
  metroPhoneMediumTile240: 
  metroPhoneWideTile: 
  metroPhoneWideTile140: 
  metroPhoneWideTile240: 
  metroPhoneSplashScreenImage: 
  metroPhoneSplashScreenImage140: 
  metroPhoneSplashScreenImage240: 
  metroTileShortName: 
  metroCommandLineArgsFile: 
  metroTileShowName: 1
  metroMediumTileShowName: 0
  metroLargeTileShowName: 0
  metroWideTileShowName: 0
  metroDefaultTileSize: 1
  metroTileForegroundText: 1
  metroTileBackgroundColor: {r: 0, g: 0, b: 0, a: 1}
  metroSplashScreenBackgroundColor: {r: 0, g: 0, b: 0, a: 1}
  metroSplashScreenUseBackgroundColor: 0
  metroCapabilities: {}
  metroUnprocessedPlugins: []
  metroCompilationOverrides: 1
  blackberryDeviceAddress: 
  blackberryDevicePassword: 
  blackberryTokenPath: 
  blackberryTokenExires: 
  blackberryTokenAuthor: 
  blackberryTokenAuthorId: 
  blackberryAuthorId: 
  blackberryCskPassword: 
  blackberrySaveLogPath: 
  blackberryAuthorIdOveride: 0
  blackberrySharedPermissions: 0
  blackberryCameraPermissions: 0
  blackberryGPSPermissions: 0
  blackberryDeviceIDPermissions: 0
  blackberryMicrophonePermissions: 0
  blackberryGamepadSupport: 0
  blackberryBuildId: 0
  blackberryLandscapeSplashScreen: {fileID: 0}
  blackberryPortraitSplashScreen: {fileID: 0}
  blackberrySquareSplashScreen: {fileID: 0}
  tizenProductDescription: 
  tizenProductURL: 
  tizenCertificatePath: 
  tizenCertificatePassword: 
  tizenGPSPermissions: 0
  tizenMicrophonePermissions: 0
  stvDeviceAddress: 
  wp8UnprocessedPlugins: []
  intPropertyNames:
  - iOS::Architecture
  - iOS::ScriptingBackend
  iOS::Architecture: 2
  iOS::ScriptingBackend: 1
  firstStreamedLevelWithResources: 0
  unityRebuildLibraryVersion: 9
  unityForwardCompatibleVersion: 39
  unityStandardAssetsVersion: 0
